{
  "project_info": {
    "project_number": "735076507860",
    "project_id": "login-36f31",
    "storage_bucket": "login-36f31.appspot.com"
  },
  "client": [
    {
      "client_info": {
        "mobilesdk_app_id": "1:735076507860:android:7e6484aad8e23100cadb41",
        "android_client_info": {
          "package_name": "com.example.minggu_11"
        }
      },
      "oauth_client": [
        {
          "client_id": "735076507860-qrccmusipi16an5g5ivmsq21b5rrd2fv.apps.googleusercontent.com",
          "client_type": 3
        }
      ],
      "api_key": [
        {
          "current_key": "AIzaSyC6-o0qnhisFQcAmY3tlXeWZaM8p1nuYus"
        }
      ],
      "services": {
        "appinvite_service": {
          "other_platform_oauth_client": [
            {
              "client_id": "735076507860-qrccmusipi16an5g5ivmsq21b5rrd2fv.apps.googleusercontent.com",
              "client_type": 3
            }
          ]
        }
      }
    }
  ],
  "configuration_version": "1"
}